<?xml version="1.0" encoding="utf-8"?>
<!-- Generator: Adobe Illustrator 21.0.0, SVG Export Plug-In . SVG Version: 6.00 Build 0)  -->
<svg version="1.1" id="Layer_1" xmlns="http://www.w3.org/2000/svg" xmlns:xlink="http://www.w3.org/1999/xlink" x="0px" y="0px"
	 viewBox="0 0 30 30" style="enable-background:new 0 0 30 30;" xml:space="preserve">
<style type="text/css">
	.st0{fill:#FFFFFF;}
	.st1{fill:#9B9B9B;}
</style>
<g id="checkbox-unchecked.svg">
	<rect x="0.5" y="0.5" class="st0" width="29" height="29"/>
	<path class="st1" d="M29,1v28H1V1H29 M30,0H0v30h30V0L30,0z"/>
</g>
</svg>
